module FL-backend

go 1.21.4

require (
	github.com/gorilla/sessions v1.2.2
	github.com/joho/godotenv v1.5.1
	github.com/markbates/goth v1.79.0
)

require github.com/nfnt/resize v0.0.0-20180221191011-83c6a9932646 // indirect

require (
	cloud.google.com/go/compute v1.20.1 // indirect
	cloud.google.com/go/compute/metadata v0.2.3 // indirect
	github.com/felixge/httpsnoop v1.0.3 // indirect
	github.com/golang-jwt/jwt/v5 v5.2.1 // indirect
	github.com/golang/protobuf v1.5.3 // indirect
	github.com/golang/snappy v0.0.1 // indirect
	github.com/google/uuid v1.6.0 // indirect
	github.com/gorilla/context v1.1.1 // indirect
	github.com/gorilla/handlers v1.5.2 // indirect
	github.com/gorilla/mux v1.8.1 // indirect
	github.com/gorilla/securecookie v1.1.2 // indirect
	//github.com/h2non/bimg v1.1.9 // indirect
	github.com/klauspost/compress v1.17.7 // indirect
	github.com/montanaflynn/stats v0.0.0-20171201202039-1bf9dbcd8cbe // indirect
	github.com/patrickmn/go-cache v2.1.0+incompatible // indirect
	github.com/xdg-go/pbkdf2 v1.0.0 // indirect
	github.com/xdg-go/scram v1.1.2 // indirect
	github.com/xdg-go/stringprep v1.0.4 // indirect
	github.com/youmark/pkcs8 v0.0.0-20181117223130-1be2e3e5546d // indirect
	go.mongodb.org/mongo-driver v1.14.0 // indirect
	golang.org/x/crypto v0.19.0 // indirect
	golang.org/x/oauth2 v0.17.0 // indirect
	golang.org/x/sync v0.1.0 // indirect
	golang.org/x/text v0.14.0 // indirect
	google.golang.org/appengine v1.6.8 // indirect
	google.golang.org/protobuf v1.32.0 // indirect
)
